[
  {
    "imagen":"assets/img/productos/entrenamientos/lectura_planos.png",
    "titulo":"Lectura de planos",
    "descripcion":"Este curso explica la importancia de los dibujos de ingeniería en la industria, y describe extensamente la generación y duplicación de estos.",
    "link":"assets/uploads/es/entrenamientos/lectura_de_planos.pdf"
  },
  {
    "imagen":"assets/img/productos/entrenamientos/fundamentos.png",
    "titulo":"Fundamentos de GD&T",
    "descripcion":"Este curso es una introducción a la norma ASME Y14.5",
    "link":"assets/uploads/es/entrenamientos/fundamentos.pdf"
  },
  {
    "imagen":"assets/img/productos/entrenamientos/avanzado.png",
    "titulo":"GD&T avanzado",
    "descripcion":"Este curso es de tres días siendo un entrenamiento enfocado a las aplicaciones prácticas.",
    "link":"assets/uploads/es/entrenamientos/gdt_acanzado.pdf"
  },
  {
    "imagen":"assets/img/productos/entrenamientos/acumulacion_tolerancia.png",
    "titulo":"Acumulación de tolerancia",
    "descripcion":"Presentar los conceptos más importantes y utilizados del estándar Y14.5. Que los participantes puedan calcular la acumulación de tolerancia mínima y máxima, cuando aparezcan símbolos del estándar Y14.5 en sus planos. Continuar la preparación de los participantes para realizar su certificación en ASME GDTP.",
    "link":"assets/uploads/es/entrenamientos/acumulacion_tolerancia.pdf"
  },
  {
    "imagen":"assets/img/productos/entrenamientos/fixtures.jpg",
    "titulo":"Diseño de fixtures funcionales",
    "descripcion":"Aplicando correctamente la creación de gages funcionales y las técnicas de inspección, es posible incrementar la producción de piezas de alta calidad. Cuando se entiende cómo diseñar y construir los gages funcionales, y cómo realizar la inspección de acuerdo a los dibujos de la pieza, es posible definir criterios de inspección directamente relacionados con la funcionalidad de la pieza. Esto significa que cuando se inspeccionen las piezas, se podrá estar seguro de que serán funcionales. Algunos objetivos a cumplir durante este curso son: Aprender los principios y tolerancias en el diseño de los gages. Conocer las formas de evitar los errores más comunes en la creación de gages y en las técnicas de inspección. Entender cómo se realiza la inspección de máquinas y de superficies (platos).",
    "link":"assets/uploads/es/entrenamientos/disenios_funcionales.pdf"
  },
  {
    "imagen":"assets/img/productos/entrenamientos/programacion_cmm.jpg",
    "titulo":"Programación de CMM",
    "descripcion":"",
    "link":"/productos/programacion-de-cmm"
  },
  {
    "imagen":"assets/img/productos/entrenamientos/calypso.png",
    "titulo":"Calypso, Holos, entre otros softwares",
    "descripcion":"",
    "link":"assets/uploads/es/entrenamientos/calypso.pdf"
  },
  {
    "imagen":"assets/img/productos/entrenamientos/asme.png",
    "titulo":"Preparación certificación ASME",
    "descripcion":"Este programa está diseñado específicamente para aumentar el potencial para aprobar el examen de certificación de GDTP de la ASME. Los objetivos del curso son: Identificar la debilidades personales en el uso de GD&T, para estudiar y corregirlas. Entender la organización y estructura del examen de certificación. Resolver un examen de preparación, compararlo con el estándar y el de los demás participantes en el curso.",
    "link":"assets/uploads/es/entrenamientos/preparacion_de_certificacion.pdf"
  },
  {
    "imagen":"assets/img/productos/entrenamientos/msa.png",
    "titulo":"MSA (Análisis de Sistema de Medición)",
    "descripcion":"Proporcionar los conceptos y herramientas necesarias para comprender en su totalidad la metrología dimensional por coordenadas en el contexto nacional e internacional, para obtener el mayor beneficio y desempeño de un sistema de medición ya sea estacionario o portátil, adquiriendo así de esta manera, una visión general sistémica del papel que juega un laboratorio de inspección de calidad en el proceso de manufactura en una industria.",
    "link":"assets/uploads/es/entrenamientos/msa.pdf"
  }
]
